[
{
  "model": "sites.site",
  "pk": 1,
  "fields": {
    "domain": "localhost:8841",
    "name": "Demo"
  }
},
{
  "model": "auth.user",
  "pk": 1,
  "fields": {
    "password": "pbkdf2_sha256$30000$avyYZKFtrPHc$v2tBScV1THPs+47ieBivJtOlum5LFSB9PBighRA+3gQ=",
    "last_login": "2017-08-03T18:29:00.959Z",
    "is_superuser": true,
    "username": "admin",
    "first_name": "Arthur",
    "last_name": "Dent",
    "email": "things@thursdays.com",
    "is_staff": true,
    "is_active": true,
    "date_joined": "1982-07-17T04:10:09Z",
    "groups": [],
    "user_permissions": []
  }
},
{
  "model": "cmsplugin_diff.edithistory",
  "pk": 1,
  "fields": {
    "user": 1,
    "page": 1,
    "date": "2017-08-03T16:35:48.626Z",
    "plugin_id": 1,
    "comment": "First initial page",
    "content": "{\n  \"fields\": {\n    \"alias_reference\": \"cms.AliasPluginModel.None\", \n    \"body\": \"Welcome to the Demo\\n\\nWelcome to this demonstration page.\", \n    \"changed_date\": \"2017-08-03 16:35:48.622401+00:00\", \n    \"cmsplugin_ptr\": \"1\", \n    \"creation_date\": \"2017-08-03 16:25:56.572443+00:00\", \n    \"depth\": 1, \n    \"id\": 1, \n    \"language\": \"en-gb\", \n    \"numchild\": 0, \n    \"path\": \"0001\", \n    \"placeholder\": \"page_body\", \n    \"plugin_type\": \"TextPlugin\", \n    \"position\": 0\n  }\n}",
    "language": "en-gb",
    "published_in": 1
  }
},
{
  "model": "cmsplugin_diff.edithistory",
  "pk": 2,
  "fields": {
    "user": 1,
    "page": 1,
    "date": "2017-08-03T18:35:21.427Z",
    "plugin_id": 1,
    "comment": "Add a section about comments",
    "content": "{\n  \"fields\": {\n    \"alias_reference\": \"cms.AliasPluginModel.None\", \n    \"body\": \"Welcome to the Demo\\n\\nWelcome, this demonstration page is your quick guide to the cmsplugin-diff django module. It extends the django-cms application with editing history, recording who changed a page, what language and why.\\n\\nComments\\n\\nThe plugin adds a comment box to the django-cms plugin window, this allows your users to record the reason why they are editing the page and give some extra information to translators and auditors.\\n\\nTo capture this comment at run-time, the package uses a middleware which records the data in django&#39;s caching framework. The cycle between the middleware running and the signal processing to record the edit is very small, but it&#39;s not zero. So there&#39;s a small possibility that the user and comment for one edit could crash another edit if they happen at exactly the same time.\", \n    \"changed_date\": \"2017-08-03 18:35:21.424170+00:00\", \n    \"cmsplugin_ptr\": \"1\", \n    \"creation_date\": \"2017-08-03 16:25:56.572000+00:00\", \n    \"depth\": 1, \n    \"id\": 1, \n    \"language\": \"en-gb\", \n    \"numchild\": 0, \n    \"path\": \"0001\", \n    \"placeholder\": \"page_body\", \n    \"plugin_type\": \"TextPlugin\", \n    \"position\": 0\n  }\n}",
    "language": "en-gb",
    "published_in": 2
  }
},
{
  "model": "cmsplugin_diff.edithistory",
  "pk": 3,
  "fields": {
    "user": 1,
    "page": 1,
    "date": "2017-08-03T18:39:20.932Z",
    "plugin_id": 1,
    "comment": "Where to find everything",
    "content": "{\n  \"fields\": {\n    \"alias_reference\": \"cms.AliasPluginModel.None\", \n    \"body\": \"Welcome to the Demo\\n\\nWelcome, this demonstration page is your quick guide to the cmsplugin-diff django module. It extends the django-cms application with editing history, recording who changed a page, what language and why.\\n\\nWhere to Find Everything\\n\\nPage edits and publishing events are picked up automatically. The data is then available from the django-cms toolbar under Page &gt; Published History for all edits which have been published already and Page &gt; Unpublished Edits for all edits that aren&#39;t published yet.\\n\\nThere is also information available in the administration where you can find the raw edit and publish items.\\n\\nComments\\n\\nThe plugin adds a comment box to the django-cms plugin window, this allows your users to record the reason why they are editing the page and give some extra information to translators and auditors.\\n\\nTo capture this comment at run-time, the package uses a middleware which records the data in django&#39;s caching framework. The cycle between the middleware running and the signal processing to record the edit is very small, but it&#39;s not zero. So there&#39;s a small possibility that the user and comment for one edit could crash another edit if they happen at exactly the same time.\", \n    \"changed_date\": \"2017-08-03 18:39:20.929500+00:00\", \n    \"cmsplugin_ptr\": \"1\", \n    \"creation_date\": \"2017-08-03 16:25:56.572000+00:00\", \n    \"depth\": 1, \n    \"id\": 1, \n    \"language\": \"en-gb\", \n    \"numchild\": 0, \n    \"path\": \"0001\", \n    \"placeholder\": \"page_body\", \n    \"plugin_type\": \"TextPlugin\", \n    \"position\": 0\n  }\n}",
    "language": "en-gb",
    "published_in": 2
  }
},
{
  "model": "cmsplugin_diff.edithistory",
  "pk": 4,
  "fields": {
    "user": 1,
    "page": 1,
    "date": "2017-08-03T20:08:18.189Z",
    "plugin_id": 1,
    "comment": "Add login instruction.",
    "content": "{\n  \"fields\": {\n    \"alias_reference\": \"cms.AliasPluginModel.None\", \n    \"body\": \"Welcome to the Demo\\n\\nWelcome, this demonstration page is your quick guide to the cmsplugin-diff django module. It extends the django-cms application with editing history, recording who changed a page, what language and why.\\n\\nLogin Now\\n\\nThe very first thing you should do is log into the site. The link in the top-right should allow you to log in with the username &#39;admin&#39; and the password &#39;123456&#39;. Once logged in, you will have full administrative super-user permissions and will see the django-cms toolbar.\\n\\nWhere to Find Everything\\n\\nPage edits and publishing events are picked up automatically. The data is then available from the django-cms toolbar under Page &gt; Published History for all edits which have been published already and Page &gt; Unpublished Edits for all edits that aren&#39;t published yet.\\n\\nThere is also information available in the administration where you can find the raw edit and publish items.\\n\\nComments\\n\\nThe plugin adds a comment box to the django-cms plugin window, this allows your users to record the reason why they are editing the page and give some extra information to translators and auditors.\\n\\nTo capture this comment at run-time, the package uses a middleware which records the data in django&#39;s caching framework. The cycle between the middleware running and the signal processing to record the edit is very small, but it&#39;s not zero. So there&#39;s a small possibility that the user and comment for one edit could crash another edit if they happen at exactly the same time.\", \n    \"changed_date\": \"2017-08-03 20:08:18.186161+00:00\", \n    \"cmsplugin_ptr\": \"1\", \n    \"creation_date\": \"2017-08-03 16:25:56.572000+00:00\", \n    \"depth\": 1, \n    \"id\": 1, \n    \"language\": \"en-gb\", \n    \"numchild\": 0, \n    \"path\": \"0001\", \n    \"placeholder\": \"page_body\", \n    \"plugin_type\": \"TextPlugin\", \n    \"position\": 0\n  }\n}",
    "language": "en-gb",
    "published_in": 3
  }
},
{
  "model": "cmsplugin_diff.publishhistory",
  "pk": 1,
  "fields": {
    "user": 1,
    "page": 2,
    "date": "2017-08-03T16:37:48.473Z",
    "language": "en-gb"
  }
},
{
  "model": "cmsplugin_diff.publishhistory",
  "pk": 2,
  "fields": {
    "user": 1,
    "page": 2,
    "date": "2017-08-03T18:39:23.419Z",
    "language": "en-gb"
  }
},
{
  "model": "cmsplugin_diff.publishhistory",
  "pk": 3,
  "fields": {
    "user": 1,
    "page": 2,
    "date": "2017-08-03T20:08:23.865Z",
    "language": "en-gb"
  }
},
{
  "model": "cms.usersettings",
  "pk": 1,
  "fields": {
    "user": 1,
    "language": "en-gb",
    "clipboard": 1
  }
},
{
  "model": "cms.page",
  "pk": 1,
  "fields": {
    "path": "0001",
    "depth": 1,
    "numchild": 0,
    "created_by": "script",
    "changed_by": "admin",
    "parent": null,
    "creation_date": "2017-07-17T04:16:50.015Z",
    "changed_date": "2017-08-03T20:08:23.856Z",
    "publication_date": "2017-07-17T04:16:50.034Z",
    "publication_end_date": null,
    "in_navigation": true,
    "soft_root": false,
    "reverse_id": null,
    "navigation_extenders": null,
    "template": "INHERIT",
    "site": 1,
    "login_required": false,
    "limit_visibility_in_menu": null,
    "is_home": true,
    "application_urls": null,
    "application_namespace": null,
    "publisher_is_draft": true,
    "publisher_public": 2,
    "languages": "en-gb",
    "revision_id": 0,
    "xframe_options": 0,
    "placeholders": [
      2
    ]
  }
},
{
  "model": "cms.page",
  "pk": 2,
  "fields": {
    "path": "0002",
    "depth": 1,
    "numchild": 0,
    "created_by": "script",
    "changed_by": "admin",
    "parent": null,
    "creation_date": "2017-07-17T04:16:50.036Z",
    "changed_date": "2017-08-03T20:08:23.842Z",
    "publication_date": "2017-07-17T04:16:50.034Z",
    "publication_end_date": null,
    "in_navigation": true,
    "soft_root": false,
    "reverse_id": null,
    "navigation_extenders": null,
    "template": "INHERIT",
    "site": 1,
    "login_required": false,
    "limit_visibility_in_menu": null,
    "is_home": true,
    "application_urls": null,
    "application_namespace": null,
    "publisher_is_draft": false,
    "publisher_public": 1,
    "languages": "en-gb",
    "revision_id": 0,
    "xframe_options": 0,
    "placeholders": [
      3
    ]
  }
},
{
  "model": "cms.page",
  "pk": 3,
  "fields": {
    "path": "0004",
    "depth": 1,
    "numchild": 0,
    "created_by": "admin",
    "changed_by": "admin",
    "parent": null,
    "creation_date": "2017-08-03T19:23:31.240Z",
    "changed_date": "2017-08-03T19:25:28.531Z",
    "publication_date": "2017-08-03T19:25:12.943Z",
    "publication_end_date": null,
    "in_navigation": true,
    "soft_root": false,
    "reverse_id": null,
    "navigation_extenders": "",
    "template": "INHERIT",
    "site": 1,
    "login_required": false,
    "limit_visibility_in_menu": null,
    "is_home": false,
    "application_urls": "",
    "application_namespace": null,
    "publisher_is_draft": true,
    "publisher_public": 4,
    "languages": "en-gb",
    "revision_id": 0,
    "xframe_options": 0,
    "placeholders": [
      4
    ]
  }
},
{
  "model": "cms.page",
  "pk": 4,
  "fields": {
    "path": "0005",
    "depth": 1,
    "numchild": 0,
    "created_by": "admin",
    "changed_by": "admin",
    "parent": null,
    "creation_date": "2017-08-03T19:25:12.946Z",
    "changed_date": "2017-08-03T19:25:28.518Z",
    "publication_date": "2017-08-03T19:25:12.943Z",
    "publication_end_date": null,
    "in_navigation": true,
    "soft_root": false,
    "reverse_id": null,
    "navigation_extenders": "",
    "template": "INHERIT",
    "site": 1,
    "login_required": false,
    "limit_visibility_in_menu": null,
    "is_home": false,
    "application_urls": "",
    "application_namespace": null,
    "publisher_is_draft": false,
    "publisher_public": 3,
    "languages": "en-gb",
    "revision_id": 0,
    "xframe_options": 0,
    "placeholders": [
      5
    ]
  }
},
{
  "model": "cms.placeholder",
  "pk": 1,
  "fields": {
    "slot": "clipboard",
    "default_width": null
  }
},
{
  "model": "cms.placeholder",
  "pk": 2,
  "fields": {
    "slot": "page_body",
    "default_width": null
  }
},
{
  "model": "cms.placeholder",
  "pk": 3,
  "fields": {
    "slot": "page_body",
    "default_width": null
  }
},
{
  "model": "cms.placeholder",
  "pk": 4,
  "fields": {
    "slot": "page_body",
    "default_width": null
  }
},
{
  "model": "cms.placeholder",
  "pk": 5,
  "fields": {
    "slot": "page_body",
    "default_width": null
  }
},
{
  "model": "cms.cmsplugin",
  "pk": 1,
  "fields": {
    "path": "0001",
    "depth": 1,
    "numchild": 0,
    "placeholder": 2,
    "parent": null,
    "position": 0,
    "language": "en-gb",
    "plugin_type": "TextPlugin",
    "creation_date": "2017-08-03T16:25:56.572Z",
    "changed_date": "2017-08-03T20:08:18.186Z"
  }
},
{
  "model": "cms.cmsplugin",
  "pk": 4,
  "fields": {
    "path": "0002",
    "depth": 1,
    "numchild": 0,
    "placeholder": 3,
    "parent": null,
    "position": 0,
    "language": "en-gb",
    "plugin_type": "TextPlugin",
    "creation_date": "2017-08-03T16:25:56.572Z",
    "changed_date": "2017-08-03T20:08:23.823Z"
  }
},
{
  "model": "cms.title",
  "pk": 1,
  "fields": {
    "language": "en-gb",
    "title": "Index",
    "page_title": "",
    "menu_title": "",
    "meta_description": "",
    "slug": "index",
    "path": "",
    "has_url_overwrite": false,
    "redirect": null,
    "page": 1,
    "creation_date": "2017-07-17T04:16:50.031Z",
    "published": true,
    "publisher_is_draft": true,
    "publisher_public": 2,
    "publisher_state": 0
  }
},
{
  "model": "cms.title",
  "pk": 2,
  "fields": {
    "language": "en-gb",
    "title": "Index",
    "page_title": "",
    "menu_title": "",
    "meta_description": "",
    "slug": "index",
    "path": "",
    "has_url_overwrite": false,
    "redirect": null,
    "page": 2,
    "creation_date": "2017-07-17T04:16:50.031Z",
    "published": true,
    "publisher_is_draft": false,
    "publisher_public": 1,
    "publisher_state": 1
  }
},
{
  "model": "cms.title",
  "pk": 3,
  "fields": {
    "language": "en-gb",
    "title": "Development",
    "page_title": "",
    "menu_title": "",
    "meta_description": "",
    "slug": "dev",
    "path": "dev",
    "has_url_overwrite": false,
    "redirect": "https://github.com/doctormo/django-cmsplugin-diff",
    "page": 3,
    "creation_date": "2017-08-03T19:23:31.260Z",
    "published": true,
    "publisher_is_draft": true,
    "publisher_public": 4,
    "publisher_state": 0
  }
},
{
  "model": "cms.title",
  "pk": 4,
  "fields": {
    "language": "en-gb",
    "title": "Development",
    "page_title": "",
    "menu_title": "",
    "meta_description": "",
    "slug": "dev",
    "path": "dev",
    "has_url_overwrite": false,
    "redirect": "https://github.com/doctormo/django-cmsplugin-diff",
    "page": 4,
    "creation_date": "2017-08-03T19:23:31.260Z",
    "published": true,
    "publisher_is_draft": false,
    "publisher_public": 3,
    "publisher_state": 0
  }
},
{
  "model": "djangocms_text_ckeditor.text",
  "pk": 1,
  "fields": {
    "body": "<h1>Welcome to the Demo</h1>\n\n<p>Welcome, this demonstration page is your quick guide to the cmsplugin-diff django module. It extends the django-cms application with editing history, recording who changed a page, what language and why.</p>\n\n<h1>Login Now</h1>\n\n<p>The very first thing you should do is log into the site. The link in the top-right should allow you to log in with the username 'admin' and the password '123456'. Once logged in, you will have full administrative super-user permissions and will see the django-cms toolbar.</p>\n\n<h2>Where to Find Everything</h2>\n\n<p>Page edits and publishing events are picked up automatically. The data is then available from the django-cms toolbar under <var>Page &gt; Published History</var> for all edits which have been published already and <var>Page &gt; Unpublished Edits</var> for all edits that aren't published yet.</p>\n\n<p>There is also information available in the administration where you can find the raw edit and publish items.</p>\n\n<h2>Comments</h2>\n\n<p>The plugin adds a comment box to the django-cms plugin window, this allows your users to record the reason why they are editing the page and give some extra information to translators and auditors.</p>\n\n<p>To capture this comment at run-time, the package uses a middleware which records the data in django's caching framework. The cycle between the middleware running and the signal processing to record the edit is very small, but it's not zero. So there's a small possibility that the user and comment for one edit could crash another edit if they happen at exactly the same time.</p>"
  }
},
{
  "model": "djangocms_text_ckeditor.text",
  "pk": 4,
  "fields": {
    "body": "<h1>Welcome to the Demo</h1>\n\n<p>Welcome, this demonstration page is your quick guide to the cmsplugin-diff django module. It extends the django-cms application with editing history, recording who changed a page, what language and why.</p>\n\n<h1>Login Now</h1>\n\n<p>The very first thing you should do is log into the site. The link in the top-right should allow you to log in with the username 'admin' and the password '123456'. Once logged in, you will have full administrative super-user permissions and will see the django-cms toolbar.</p>\n\n<h2>Where to Find Everything</h2>\n\n<p>Page edits and publishing events are picked up automatically. The data is then available from the django-cms toolbar under <var>Page &gt; Published History</var> for all edits which have been published already and <var>Page &gt; Unpublished Edits</var> for all edits that aren't published yet.</p>\n\n<p>There is also information available in the administration where you can find the raw edit and publish items.</p>\n\n<h2>Comments</h2>\n\n<p>The plugin adds a comment box to the django-cms plugin window, this allows your users to record the reason why they are editing the page and give some extra information to translators and auditors.</p>\n\n<p>To capture this comment at run-time, the package uses a middleware which records the data in django's caching framework. The cycle between the middleware running and the signal processing to record the edit is very small, but it's not zero. So there's a small possibility that the user and comment for one edit could crash another edit if they happen at exactly the same time.</p>"
  }
}
]
